YLR028C	IMPCYCLOHYDROLASE-RXN
YMR120C	IMPCYCLOHYDROLASE-RXN
YJL031C	RXN3O-7
YPR176C	RXN3O-7
YGL155W	RXN3O-7
YJL221C	MALTODEXGLUCOSID-RXN
YIL172C	MALTODEXGLUCOSID-RXN
YJL216C	MALTODEXGLUCOSID-RXN
YGR287C	MALTODEXGLUCOSID-RXN
YGR292W	MALTODEXGLUCOSID-RXN
YBR299W	MALTODEXGLUCOSID-RXN
YNL219C	RXN3O-3
YDR196C	DEPHOSPHOCOAKIN-RXN
YGR247W	3.1.4.37-RXN
YGL027C	3.2.1.106-RXN
YPL087W	CERAMIDASE-YEAST-RXN
YBR183W	CERAMIDASE-YEAST-RXN
YLR070C	D-XYLULOSE-REDUCTASE-RXN
YCL064C	LSERINEDEAM-RXN
YLR195C	2.3.1.97-RXN
YFL018C	RXN-8629
YKL001C	ADENYLYLSULFKIN-RXN
YJL153C	MYO-INOSITOL-1-PHOSPHATE-SYNTHASE-RXN
YKL055C	GEN-3-OXOACYL-ACP-RXN
YPL231W	GEN-3-OXOACYL-ACP-RXN
YKL141W	SUCC-FUM-OXRED-UBI-RXN
YDR178W	SUCC-FUM-OXRED-UBI-RXN
YLL041C	SUCC-FUM-OXRED-UBI-RXN
YKL148C	SUCC-FUM-OXRED-UBI-RXN
YAL038W	PEPDEPHOS-RXN
YOR347C	PEPDEPHOS-RXN
YER023W	PYRROLINECARBREDUCT-RXN
YCL040W	RXN3O-10
YFR053C	RXN3O-10
YGL253W	RXN3O-10
YNR030W	RXN3O-11
YGR255C	RXN3O-12
YNL241C	GLU6PDEHYDROG-RXN
YKL026C	GLUTATHIONE-PEROXIDASE-RXN
YBR244W	GLUTATHIONE-PEROXIDASE-RXN
YIR037W	GLUTATHIONE-PEROXIDASE-RXN
YIL162W	3.2.1.26-RXN
YMR113W	DIHYDROFOLATESYNTH-RXN
YJR016C	DIHYDROXYISOVALDEHYDRAT-RXN
YLR299W	RXN-6601
YDL055C	MANNPGUANYLTRANGDP-RXN
YCL004W	PHOSPHAGLYPSYN-RXN
YFR053C	FRUCTOKINASE-RXN
YGL253W	FRUCTOKINASE-RXN
YDL142C	CARDIOLIPSYN-RXN
YBR038W	CHITIN-SYNTHASE-RXN
YNL192W	CHITIN-SYNTHASE-RXN
YBR023C	CHITIN-SYNTHASE-RXN
YCR107W	ARYL-ALCOHOL-DEHYDROGENASE-RXN
YJR155W	ARYL-ALCOHOL-DEHYDROGENASE-RXN
YDL243C	ARYL-ALCOHOL-DEHYDROGENASE-RXN
YNL331C	ARYL-ALCOHOL-DEHYDROGENASE-RXN
YFL056C	ARYL-ALCOHOL-DEHYDROGENASE-RXN
YOL165C	ARYL-ALCOHOL-DEHYDROGENASE-RXN
YER055C	ATPPHOSPHORIBOSYLTRANS-RXN
YHR074W	NAD-SYNTH-GLN-RXN
YKL184W	ORNDECARBOX-RXN
YEL058W	PHOSACETYLGLUCOSAMINEMUT-RXN
YLR354C	TRANSALDOL-RXN
YKL141W	SUCC-FUM-OXRED-RXN
YDR178W	SUCC-FUM-OXRED-RXN
YLL041C	SUCC-FUM-OXRED-RXN
YKL148C	SUCC-FUM-OXRED-RXN
YOL058W	ARGSUCCINSYN-RXN
YKL140W	TRIACYLGLYCEROL-LIPASE-RXN
YCR068W	TRIACYLGLYCEROL-LIPASE-RXN
YDR058C	TRIACYLGLYCEROL-LIPASE-RXN
YDL045C	FADSYN-RXN
YNL141W	ADENINE-DEAMINASE-RXN
YGR286C	2.8.1.6-RXN
YDR487C	DIOHBUTANONEPSYN-RXN
YKL004W	RXN3O-581
YFL018C	RXN0-1132
YDR242W	R311-RXN
YDL236W	4-NITROPHENYLPHOSPHATASE-RXN
YIL053W	GLYCEROL-1-PHOSPHATASE-RXN
YER062C	GLYCEROL-1-PHOSPHATASE-RXN
YBR018C	GALACTURIDYLYLTRANS-RXN
YLR133W	CHOLINE-KINASE-RXN
YMR220W	PHOSPHOMEVALONATE-KINASE-RXN
YLR316C	ADENODEAMIN-RXN
YGL243W	ADENODEAMIN-RXN
YJL035C	ADENODEAMIN-RXN
YDR518W	DISULISOM-RXN
YOR288C	DISULISOM-RXN
YOL088C	DISULISOM-RXN
YCL043C	DISULISOM-RXN
YAL033W	3.1.26.5-RXN
YBL018C	3.1.26.5-RXN
YHR062C	3.1.26.5-RXN
YGR030C	3.1.26.5-RXN
YML091C	3.1.26.5-RXN
YBR167C	3.1.26.5-RXN
YNL221C	3.1.26.5-RXN
YIR015W	3.1.26.5-RXN
YML004C	GLYOXI-RXN
YGL205W	ACYL-COA-OXIDASE-RXN
YNL238W	3.4.21.61-RXN
YOR184W	PSERTRANSAM-RXN
YKL157W	CYTOSOL-AMINOPEPTIDASE-RXN
YPL028W	ACETYL-COA-ACETYLTRANSFER-RXN
YMR208W	MEVALONATE-KINASE-RXN
YBR145W	RXN3O-4141
YGL256W	RXN3O-4141
YMR083W	RXN3O-4141
YDL168W	RXN3O-4141
YMR303C	RXN3O-4141
YOL086C	RXN3O-4141
YLR284C	ENOYL-COA-DELTA-ISOM-RXN
YOR180C	ENOYL-COA-DELTA-ISOM-RXN
YBR019C	UDPGLUCEPIM-RXN
YJL130C	CARBPSYN-RXN
YMR020W	SPERMINE-OXIDASE-RXN
YBL082C	RXN3O-291
YJL101C	GLUTCYSLIG-RXN
YKR009C	ENOYL-COA-HYDRAT-RXN
YER026C	PHOSPHASERSYN-RXN
YPL262W	FUMHYDR-RXN
YAR071W	ACID-PHOSPHATASE-RXN
YBR092C	ACID-PHOSPHATASE-RXN
YBR093C	ACID-PHOSPHATASE-RXN
YHR215W	ACID-PHOSPHATASE-RXN
YBR117C	1TRANSKETO-RXN
YPR074C	1TRANSKETO-RXN
YGR007W	2.7.7.14-RXN
YKL141W	|SUCCINATE-DEHYDROGENASE-(UBIQUINONE)-RXN|
YDR178W	|SUCCINATE-DEHYDROGENASE-(UBIQUINONE)-RXN|
YJL045W	|SUCCINATE-DEHYDROGENASE-(UBIQUINONE)-RXN|
YLL041C	|SUCCINATE-DEHYDROGENASE-(UBIQUINONE)-RXN|
YKL148C	|SUCCINATE-DEHYDROGENASE-(UBIQUINONE)-RXN|
YDR173C	2.7.1.127-RXN
YBR248C	GLUTAMIDOTRANS-RXN
YIL010W	NADPH-PEROXIDASE-RXN
YGR087C	RXN0-2022
YLR044C	RXN0-2022
YLR134W	RXN0-2022
YNL202W	DIENOYLCOAREDUCT-RXN
YPR060C	CHORISMATEMUT-RXN
YKL067W	CDPKIN-RXN
YNR050C	RXN3O-127
YDL215C	GLUTAMATE-DEHYDROGENASE-RXN
YLR044C	PYRUVATE-DECARBOXYLASE-RXN
YGR087C	PYRUVATE-DECARBOXYLASE-RXN
YLR134W	PYRUVATE-DECARBOXYLASE-RXN
YHR179W	NADPH-DEHYDROGENASE-RXN
YPL171C	NADPH-DEHYDROGENASE-RXN
YNL169C	PHOSPHASERDECARB-RXN
YGR170W	PHOSPHASERDECARB-RXN
YPR074C	2TRANSKETO-RXN
YGR175C	SQUALENE-MONOOXYGENASE-RXN
YGR194C	XYLULOKIN-RXN
YOR245C	DIACYLGLYCEROL-O-ACYLTRANSFERASE-RXN
YIL094C	HOMOISOCITRATE-DEHYDROGENASE-RXN
YOL096C	2.1.1.114-RXN
YLR245C	CYTIDEAM2-RXN
YKL067W	DUDPKIN-RXN
YOR377W	ALCOHOL-O-ACETYLTRANSFERASE-RXN
YGR177C	ALCOHOL-O-ACETYLTRANSFERASE-RXN
YLR355C	ACETOLACTREDUCTOISOM-RXN
YIL125W	2OXOGLUTDECARB-RXN
YCL030C	HISTPRATPHYD-RXN
YHR018C	ARGSUCCINLYA-RXN
YBR263W	GLYOHMETRANS-RXN
YLR058C	GLYOHMETRANS-RXN
YIL099W	3.2.1.3-RXN
YDR300C	GLUTKIN-RXN
YKL152C	3PGAREARR-RXN
YIL066C	ADPREDUCT-RXN
YJL026W	ADPREDUCT-RXN
YGR180C	ADPREDUCT-RXN
YER070W	ADPREDUCT-RXN
YNL129W	RIBOSYLNICOTINAMIDE-KINASE-RXN
YNL071W	RXN0-1133
YBR019C	GALACTOSE-EPIMERASE-RXN
YDR062W	SERINE-C-PALMITOYLTRANSFERASE-RXN
YMR296C	SERINE-C-PALMITOYLTRANSFERASE-RXN
YJR153W	3.2.1.15-RXN
YDL103C	NAG1P-URIDYLTRANS-RXN
YBR221C	RXN0-1134
YER178W	RXN0-1134
YKL103C	3.4.11.22-RXN
YNL009W	ISOCITDEH-RXN
YDL066W	ISOCITDEH-RXN
YLR174W	ISOCITDEH-RXN
YKL067W	DCDPKIN-RXN
YLR328W	2.7.7.1-RXN
YGR010W	2.7.7.1-RXN
YPL111W	ARGINASE-RXN
YBR035C	PNPOXI-RXN
YIR032C	RXN0-292
YMR015C	RXN3O-227
YFR019W	2.7.1.143-RXN
YEL046C	THREONINE-ALDOLASE-RXN
YLL062C	HOMOCYSTEINE-S-METHYLTRANSFERASE-RXN
YIR029W	ALLANTOICASE-RXN
YMR281W	3.5.1.89-RXN
YHR109W	2.1.1.59-RXN
YOL140W	ACETYLORNTRANSAM-RXN
YHR190W	YEAST-SQUALENE-RXN
YLR146C	SPERMINE-SYNTHASE-RXN
YJR016C	DIHYDROXYMETVALDEHYDRAT-RXN
YOR241W	RXN3O-22
YFR053C	R81-RXN
YGL253W	R81-RXN
YKL055C	3-OXOACYL-ACP-REDUCT-RXN
YPL231W	3-OXOACYL-ACP-REDUCT-RXN
YDR242W	AMIDASE-RXN
YER090W	ANTHRANSYN-RXN
YKL211C	ANTHRANSYN-RXN
YBR213W	SIROHEME-FERROCHELAT-RXN
YNL048W	RXN3O-379
YDR400W	URIDINE-NUCLEOSIDASE-RXN
YIL107C	6-PHOSPHOFRUCTO-2-KINASE-RXN
YOL136C	6-PHOSPHOFRUCTO-2-KINASE-RXN
YBR110W	2.4.1.142-RXN
YDL141W	BIOTINLIG-RXN
YPR113W	2.7.8.11-RXN
YDR400W	RXN3O-314
YHR072W	LANOSTEROL-SYNTHASE-RXN
YAL039C	HOLOCYTOCHROME-C-SYNTHASE-RXN
YKL087C	HOLOCYTOCHROME-C-SYNTHASE-RXN
YEL029C	PNKIN-RXN
YOR176W	PROTOHEMEFERROCHELAT-RXN
YGR240C	6PFRUCTPHOS-RXN
YMR205C	6PFRUCTPHOS-RXN
YHR208W	BRANCHED-CHAINAMINOTRANSFERVAL-RXN
YJR148W	BRANCHED-CHAINAMINOTRANSFERVAL-RXN
YCL040W	GLUCOKIN-RXN
YHR137W	RXN3O-4157
YBR265W	3-DEHYDROSPHINGANINE-REDUCTASE-RXN
YNR057C	DETHIOBIOTIN-SYN-RXN
YDL040C	PEPTIDE-ALPHA-N-ACETYLTRANSFERASE-RXN
YHR013C	PEPTIDE-ALPHA-N-ACETYLTRANSFERASE-RXN
YGR147C	PEPTIDE-ALPHA-N-ACETYLTRANSFERASE-RXN
YGL202W	PHEAMINOTRANS-RXN
YFR025C	HISTIDPHOS-RXN
YGR155W	CYSTATHIONINE-BETA-SYNTHASE-RXN
YKL029C	MALIC-NAD-RXN
YLR420W	DIHYDROOROT-RXN
YGL001C	RXN3O-4118
YER003C	MANNPISOM-RXN
YBR145W	RXN3O-163
YGL256W	RXN3O-163
YMR083W	RXN3O-163
YDL168W	RXN3O-163
YMR303C	RXN3O-163
YOL086C	RXN3O-163
YHR137W	RXN3O-4112
YDR234W	HOMOACONITATE-HYDRATASE-RXN
YMR083W	RXN3O-4117
YGL256W	RXN3O-4117
YBR145W	RXN3O-4117
YDL168W	RXN3O-4117
YMR303C	RXN3O-4117
YOL086C	RXN3O-4117
YLR044C	RXN3O-4116
YDR380W	RXN3O-4116
YGR087C	RXN3O-4116
YDL080C	RXN3O-4116
YLR134W	RXN3O-4116
YHR137W	RXN3O-4114
YML035C	AMP-DEAMINASE-RXN
YER086W	THREDEHYD-RXN
YLL060C	GSHTRAN-RXN
YIR038C	GSHTRAN-RXN
YMR165C	PHOSPHATIDATE-PHOSPHATASE-RXN
YJR110W	RXN3O-364
YNL106C	RXN3O-364
YOR109W	RXN3O-364
YKL212W	RXN3O-364
YGR204W	METHENYLTHFCYCLOHYDRO-RXN
YBR084W	METHENYLTHFCYCLOHYDRO-RXN
YDR001C	TREHALA-RXN
YPR026W	TREHALA-RXN
YGL065C	2.4.1.132-RXN
YOL052C	SAMDECARB-RXN
YBR115C	1.2.1.31-RXN
YGL202W	TYRAMINOTRANS-RXN
YLR377C	F16BDEPHOS-RXN
YMR062C	GLUTAMATE-N-ACETYLTRANSFERASE-RXN
YHR163W	6PGLUCONOLACT-RXN
YGR248W	6PGLUCONOLACT-RXN
YBR126C	TREHALOSE6PSYN-RXN
YGL203C	3.4.16.6-RXN
YKL067W	DGDPKIN-RXN
YBR035C	PMPOXI-RXN
YHR208W	BRANCHED-CHAINAMINOTRANSFERLEU-RXN
YJR148W	BRANCHED-CHAINAMINOTRANSFERLEU-RXN
YPR035W	GLUTAMINESYN-RXN
YPL096W	3.5.1.52-RXN
YIR031C	MALSYN-RXN
YNL117W	MALSYN-RXN
YJR130C	RXN-721
YGL125W	1.5.1.20-RXN
YPL023C	1.5.1.20-RXN
YJR104C	SUPEROX-DISMUT-RXN
YHR008C	SUPEROX-DISMUT-RXN
YLR044C	RXN-6161
YGR087C	RXN-6161
YLR134W	RXN-6161
YMR189W	GCVP-RXN
YOR241W	FOLYLPOLYGLUTAMATESYNTH-RXN
YDR147W	ETHANOLAMINE-KINASE-RXN
YJL100W	1-PHOSPHATIDYLINOSITOL-KINASE-RXN
YNL267W	1-PHOSPHATIDYLINOSITOL-KINASE-RXN
YLR305C	1-PHOSPHATIDYLINOSITOL-KINASE-RXN
YMR267W	INORGPYROPHOSPHAT-RXN
YBR011C	INORGPYROPHOSPHAT-RXN
YHR201C	EXOPOLYPHOSPHATASE-RXN
YJL002C	2.4.1.119-RXN
YEL002C	2.4.1.119-RXN
YGL022W	2.4.1.119-RXN
YDL232W	2.4.1.119-RXN
YOR103C	2.4.1.119-RXN
YMR149W	2.4.1.119-RXN
YML019W	2.4.1.119-RXN
YGL226C-A	2.4.1.119-RXN
YER069W	N-ACETYLGLUTPREDUCT-RXN
YGL148W	CHORISMATE-SYNTHASE-RXN
YOR136W	|ISOCITRATE-DEHYDROGENASE-(NAD+)-RXN|
YNL037C	|ISOCITRATE-DEHYDROGENASE-(NAD+)-RXN|
YDR148C	RXN0-1147
YGR157W	2.1.1.16-RXN
YLR450W	1.1.1.34-RXN
YML075C	1.1.1.34-RXN
YEL029C	PYRAMKIN-RXN
YNR058W	DAPASYN-RXN
YLR142W	PROLDEHYDROG-RXN
YLR258W	|GLYCOGEN-(STARCH)-SYNTHASE-RXN|
YFR015C	|GLYCOGEN-(STARCH)-SYNTHASE-RXN|
YPL061W	|ALDEHYDE-DEHYDROGENASE-(NADP+)-RXN|
YMR318C	|ALCOHOL-DEHYDROGENASE-(NADP+)-RXN|
YDR502C	S-ADENMETSYN-RXN
YLR180W	S-ADENMETSYN-RXN
YFL018C	DIHYDLIPOXN-RXN
YKL067W	DADPKIN-RXN
YLR142W	HYDROXYPRODEHYDROG-RXN
YGL067W	NADPYROPHOSPHAT-RXN
YKR031C	PHOSCHOL-RXN
YDR400W	RXN3O-214
YMR083W	RXN3O-217
YGL256W	RXN3O-217
YBR145W	RXN3O-217
YDL168W	RXN3O-217
YMR303C	RXN3O-217
YOL086C	RXN3O-217
YPR001W	CITSYN-RXN
YCR005C	CITSYN-RXN
YNR001C	CITSYN-RXN
YNL045W	LEUKOTRIENE-A4-HYDROLASE-RXN
YLR056W	RXN3O-218
YEL042W	GUANOSINE-DIPHOSPHATASE-RXN
YMR041C	D-ARABINOSE-1-DEHYDROGENASE-RXN
YOR278W	UROGENIIISYN-RXN
YGR208W	PSERPHOSPHA-RXN
YKL035W	GLUC1PURIDYLTRANS-RXN
YHL012W	GLUC1PURIDYLTRANS-RXN
YCR048W	STEROL-O-ACYLTRANSFERASE-RXN
YNR019W	STEROL-O-ACYLTRANSFERASE-RXN
YJL167W	GPPSYN-RXN
YER042W	PROTEIN-METHIONINE-S-OXIDE-REDUCTASE-RXN
YIL116W	HISCBACSU-RXN
YBL098W	KYNURENINE-3-MONOOXYGENASE-RXN
YDR256C	CATAL-RXN
YGR088W	CATAL-RXN
YFR047C	QUINOPRIBOTRANS-RXN
YDR127W	3-DEHYDROQUINATE-DEHYDRATASE-RXN
YPR069C	SPERMIDINESYN-RXN
YBR196C	PGLUCISOM-RXN
YPR062W	CYTDEAM-RXN
YIL020C	PRIBFAICARPISOM-RXN
YJL167W	FPPSYN-RXN
YJR131W	3.2.1.113-RXN
YHL003C	RXN3O-328
YKL008C	RXN3O-328
YMR298W	RXN3O-328
YJR010W	SULFATE-ADENYLYLTRANS-RXN
YFR053C	HEXOKINASE-RXN
YGL253W	HEXOKINASE-RXN
YHR104W	ALDEHYDE-REDUCTASE-RXN
YGL009C	3-ISOPROPYLMALISOM-RXN
YDL022W	1.1.1.8-RXN
YOL059W	1.1.1.8-RXN
YPL069C	FARNESYLTRANSTRANSFERASE-RXN
YKR009C	OHACYL-COA-DEHYDROG-RXN
YDR294C	SPHINGANINE-1-PHOSPHATE-ALDOLASE-RXN
YJL130C	ASPCARBTRANS-RXN
YLR303W	ACETYLHOMOSER-CYS-RXN
YAR035W	CARNITINE-O-ACETYLTRANSFERASE-RXN
YML042W	CARNITINE-O-ACETYLTRANSFERASE-RXN
YER024W	CARNITINE-O-ACETYLTRANSFERASE-RXN
YGR244C	SUCCCOASYN-RXN
YOR142W	SUCCCOASYN-RXN
YMR300C	PRPPAMIDOTRANS-RXN
YPR145W	ASNSYNB-RXN
YGR124W	ASNSYNB-RXN
YJL137C	GLYCOGENIN-GLUCOSYLTRANSFERASE-RXN
YKR058W	GLYCOGENIN-GLUCOSYLTRANSFERASE-RXN
YHR007C	RXN3O-130
YLR209C	RXN3O-131
YDL042C	RXN3O-4120
YKL024C	UMPKI-RXN
YKL211C	IGPSYN-RXN
YJR057W	DTMPKI-RXN
YNL256W	H2PTEROATESYNTH-RXN
YNR012W	URKI-RXN
YOR251C	THIOSULFATE-SULFURTRANSFERASE-RXN
YDL178W	|D-LACTATE-DEHYDROGENASE-(CYTOCHROME)-RXN|
YEL071W	|D-LACTATE-DEHYDROGENASE-(CYTOCHROME)-RXN|
YDL174C	|D-LACTATE-DEHYDROGENASE-(CYTOCHROME)-RXN|
YNR016C	BIOTIN-CARBOXYL-RXN
YLR245C	CYTIDEAM-RXN
YOR221C	MALONYL-COA-ACP-TRANSACYL-RXN
YKL182W	MALONYL-COA-ACP-TRANSACYL-RXN
YIR027C	ALLANTOINASE-RXN
YIL145C	PANTOATE-BETA-ALANINE-LIG-RXN
YHR075C	MCPMETEST-RXN
YNL220W	ADENYLOSUCCINATE-SYNTHASE-RXN
YHR037W	PYRROLINECARBDEHYDROG-RXN
YKL060C	F16ALDOLASE-RXN
YDR242W	R314-RXN
YIL066C	CDPREDUCT-RXN
YJL026W	CDPREDUCT-RXN
YGR180C	CDPREDUCT-RXN
YER070W	CDPREDUCT-RXN
YDR408C	GART-RXN
YER133W	3.1.3.16-RXN
YDR436W	3.1.3.16-RXN
YGL190C	3.1.3.16-RXN
YBR208C	ALLOPHANATE-HYDROLASE-RXN
YGL040C	PORPHOBILSYNTH-RXN
YER043C	ADENOSYLHOMOCYSTEINASE-RXN
YDR399W	HYPOXANPRIBOSYLTRAN-RXN
YNL219C	RXN3O-259
YLR410W	RXN3O-258
YNL106C	RXN3O-257
YOR109W	RXN3O-257
YKL212W	RXN3O-257
YOL151W	DIHYDROKAEMPFEROL-4-REDUCTASE-RXN
YPR167C	1.8.4.8-RXN
YJR109C	RXN3O-884
YOR303W	RXN3O-884
YOR236W	DIHYDROFOLATEREDUCT-RXN
YDR399W	GUANPRIBOSYLTRAN-RXN
YHR208W	BRANCHED-CHAINAMINOTRANSFERILEU-RXN
YJR148W	BRANCHED-CHAINAMINOTRANSFERILEU-RXN
YDR158W	ASPARTATE-SEMIALDEHYDE-DEHYDROGENASE-RXN
YGR061C	FGAMSYN-RXN
YMR189W	GCVMULTI-RXN
YDR019C	GCVMULTI-RXN
YFL018C	GCVMULTI-RXN
YAL044C	GCVMULTI-RXN
YLR260W	SPHINGANINE-KINASE-RXN
YOR171C	SPHINGANINE-KINASE-RXN
YHR106W	THIOREDOXIN-REDUCT-NADPH-RXN
YDR353W	THIOREDOXIN-REDUCT-NADPH-RXN
YGR169C	TRNA-PSEUDOURIDINE-SYNTHASE-I-RXN
YLR028C	AICARTRANSFORM-RXN
YMR120C	AICARTRANSFORM-RXN
YLR304C	ACONITATEHYDR-RXN
YPL154C	3.4.23.25-RXN
YMR246W	ACYLCOASYN-RXN
YBR041W	ACYLCOASYN-RXN
YOR317W	ACYLCOASYN-RXN
YER015W	ACYLCOASYN-RXN
YIL009W	ACYLCOASYN-RXN
YKR069W	UROPORIIIMETHYLTRANSA-RXN
YGR204W	METHYLENETHFDEHYDROG-NADP-RXN
YBR084W	METHYLENETHFDEHYDROG-NADP-RXN
YHR037W	HYDROXYPYRROLINEDEH-RXN
YJL071W	N-ACETYLTRANSFER-RXN
YCR053W	THRESYN-RXN
YHR135C	PROTEIN-KINASE-RXN
YER123W	PROTEIN-KINASE-RXN
YNL154C	PROTEIN-KINASE-RXN
YLR189C	STEROL-GLUCOSYLTRANSFERASE-RXN
YPL214C	THI-P-SYN-RXN
YJR025C	1.13.11.6-RXN
YOR095C	RIB5PISOM-RXN
YDR454C	GUANYL-KIN-RXN
YLR438W	ORNITHINE-GLU-AMINOTRANSFORASE-RXN
YDR173C	2.7.1.151-RXN
YFL030W	ALANINE--GLYOXYLATE-AMINOTRANSFERASE-RXN
YLR449W	PEPTIDYLPROLYL-ISOMERASE-RXN
YJR032W	PEPTIDYLPROLYL-ISOMERASE-RXN
YDR519W	PEPTIDYLPROLYL-ISOMERASE-RXN
YNL135C	PEPTIDYLPROLYL-ISOMERASE-RXN
YML074C	PEPTIDYLPROLYL-ISOMERASE-RXN
YDR304C	PEPTIDYLPROLYL-ISOMERASE-RXN
YCR069W	PEPTIDYLPROLYL-ISOMERASE-RXN
YML078W	PEPTIDYLPROLYL-ISOMERASE-RXN
YDR155C	PEPTIDYLPROLYL-ISOMERASE-RXN
YNR028W	PEPTIDYLPROLYL-ISOMERASE-RXN
YJR017C	PEPTIDYLPROLYL-ISOMERASE-RXN
YHR057C	PEPTIDYLPROLYL-ISOMERASE-RXN
YLR216C	PEPTIDYLPROLYL-ISOMERASE-RXN
YCR107W	BENZYL-ALCOHOL-DEHYDROGENASE-RXN
YJR155W	BENZYL-ALCOHOL-DEHYDROGENASE-RXN
YNL331C	BENZYL-ALCOHOL-DEHYDROGENASE-RXN
YDL243C	BENZYL-ALCOHOL-DEHYDROGENASE-RXN
YFL056C	BENZYL-ALCOHOL-DEHYDROGENASE-RXN
YOL165C	BENZYL-ALCOHOL-DEHYDROGENASE-RXN
YOL126C	MALATE-DEH-RXN
YDL078C	MALATE-DEH-RXN
YKL085W	MALATE-DEH-RXN
YNR016C	ACETYL-COA-CARBOXYLTRANSFER-A-RXN
YMR207C	ACETYL-COA-CARBOXYLTRANSFER-A-RXN
YML008C	RXN3O-178
YIR034C	1.5.1.7-RXN
YDR297W	RXN3O-1380
YKL218C	5.1.1.16-RXN
YBR003W	RXN3O-171
YDR226W	ADENYL-KIN-RXN
YER170W	ADENYL-KIN-RXN
YGL065C	RXN3O-378
YMR272C	RXN3O-4042
YLR359W	AMPSYN-RXN
YAL012W	CYSTAGLY-RXN
YGR277C	PANTEPADENYLYLTRAN-RXN
YOR323C	GLUTSEMIALDEHYDROG-RXN
YGR157W	2.1.1.17-RXN
YNR012W	RXN3O-376
YJL200C	ACONITATEDEHYDR-RXN
YLR304C	ACONITATEDEHYDR-RXN
YOL065C	PHOSPHATIDYLINOSITOL-BISPHOSPHATASE-RXN
YNL106C	PHOSPHATIDYLINOSITOL-BISPHOSPHATASE-RXN
YIL002C	PHOSPHATIDYLINOSITOL-BISPHOSPHATASE-RXN
YOR109W	PHOSPHATIDYLINOSITOL-BISPHOSPHATASE-RXN
YML056C	IMP-DEHYDROG-RXN
YHR216W	IMP-DEHYDROG-RXN
YLR432W	IMP-DEHYDROG-RXN
YKL106W	ASPAMINOTRANS-RXN
YLR027C	ASPAMINOTRANS-RXN
YCR012W	PHOSGLYPHOS-RXN
YMR170C	3-PROPANAL-DEHYDROGENASE-RXN
YMR169C	3-PROPANAL-DEHYDROGENASE-RXN
YIR022W	3.4.21.81-RXN
YCL030C	HISTCYCLOHYD-RXN
YHR042W	NADPH--FERRIHEMOPROTEIN-REDUCTASE-RXN
YHR144C	DCMP-DEAMINASE-RXN
YIL160C	METHYLACETOACETYLCOATHIOL-RXN
YOR054C	P-PANTOCYSDECARB-RXN
YKR072C	P-PANTOCYSDECARB-RXN
YKL088W	P-PANTOCYSDECARB-RXN
YNL316C	PREPHENATEDEHYDRAT-RXN
YLR231C	3-HYDROXY-KYNURENINASE-RXN
YLR100W	RXN3O-4110
YBR249C	DAHPSYN-RXN
YDR035W	DAHPSYN-RXN
YOL096C	RXN3O-102
YJR103W	CTPSYN-RXN
YBL039C	CTPSYN-RXN
YER019W	PHOSPHOLIPASE-C-RXN
YNR043W	DIPHOSPHOMEVALONTE-DECARBOXYLASE-RXN
YJR133W	XANPRIBOSYLTRAN-RXN
YNL104C	2-ISOPROPYLMALATESYN-RXN
YOR108W	2-ISOPROPYLMALATESYN-RXN
YER065C	ISOCIT-CLEAV-RXN
YJR057W	RXN3O-39
YCR036W	RIBOKIN-RXN
YJL134W	DHS-PHOSPHATASE-RXN
YKR053C	DHS-PHOSPHATASE-RXN
YOL066C	RXN3O-164
YNL129W	RXN3O-32
YNL071W	DIHYDLIPACETRANS-RXN
YDL086W	CARBOXYMETHYLENEBUTENOLIDASE-RXN
YCL030C	HISTALDEHYD-RXN
YCL018W	3-ISOPROPYLMALDEHYDROG-RXN
YAR015W	SAICARSYN-RXN
YCL054W	METHCOCLTH-RXN
YDR354W	PRTRANS-RXN
YLR260W	RXN3O-458
YOR171C	RXN3O-458
YKL182W	ACP-S-ACETYLTRANSFER-RXN
YPL227C	2.4.1.117-RXN
YPL019C	GTPPYPHOSKIN-RXN
YJL012C	GTPPYPHOSKIN-RXN
YFL004W	GTPPYPHOSKIN-RXN
YJL005W	ADENYLATECYC-RXN
YJR137C	SULFITE-REDUCT-RXN
YFR030W	SULFITE-REDUCT-RXN
YGL037C	NICOTINAMID-RXN
YIL155C	GLYC3PDEHYDROG-RXN
YDR234W	RXN3O-1983
YPL212C	PSEUDOURIDYLATE-SYNTHASE-RXN
YGL063W	PSEUDOURIDYLATE-SYNTHASE-RXN
YLR175W	PSEUDOURIDYLATE-SYNTHASE-RXN
YNL292W	PSEUDOURIDYLATE-SYNTHASE-RXN
YGR036C	DOLICHYLDIPHOSPHATASE-RXN
YDR127W	SHIKIMATE-5-DEHYDROGENASE-RXN
YJR019C	ACYL-COA-HYDROLASE-RXN
YMR105C	PHOSPHOGLUCMUT-RXN
YKL127W	PHOSPHOGLUCMUT-RXN
YBR221C	PYRUVATEDECARB-RXN
YER178W	PYRUVATEDECARB-RXN
YKL067W	DTDPKIN-RXN
YMR202W	RXN3O-203
YER052C	ASPARTATEKIN-RXN
YOR241W	FORMYLTHFGLUSYNTH-RXN
YDR019C	GCVT-RXN
YLR342W	|1,3-BETA-GLUCAN-SYNTHASE-RXN|
YCR034W	|1,3-BETA-GLUCAN-SYNTHASE-RXN|
YGR032W	|1,3-BETA-GLUCAN-SYNTHASE-RXN|
YNL012W	LYSOPHOSPHOLIPASE-RXN
YMR008C	LYSOPHOSPHOLIPASE-RXN
YOL011W	LYSOPHOSPHOLIPASE-RXN
YMR006C	LYSOPHOSPHOLIPASE-RXN
YGL202W	PREPHENATE-TRANSAMINE-RXN
YHR137W	PREPHENATE-TRANSAMINE-RXN
YLR286C	3.2.1.14-RXN
YGR254W	2PGADEHYDRAT-RXN
YHR174W	2PGADEHYDRAT-RXN
YDR072C	RXN3O-680
YOR241W	RXN3O-681
YBR149W	1.1.1.117-RXN
YOR374W	RXN3O-274
YER073W	RXN3O-274
YIL083C	P-PANTOCYSLIG-RXN
YBR018C	UTPHEXPURIDYLYLTRANS-RXN
YJL155C	3.1.3.46-RXN
YDR538W	RXN-801
YKL150W	CYTOCHROME-B5-REDUCTASE-RXN
YIL043C	CYTOCHROME-B5-REDUCTASE-RXN
YBL015W	ACETYL-COA-HYDROLASE-RXN
YJR009C	GAPOXNPHOSPHN-RXN
YJL052W	GAPOXNPHOSPHN-RXN
YGR192C	GAPOXNPHOSPHN-RXN
YMR246W	R223-RXN
YBR041W	R223-RXN
YOR317W	R223-RXN
YER015W	R223-RXN
YIL009W	R223-RXN
YDR428C	ARYLFORMAMIDASE-RXN
YBR176W	3-CH3-2-OXOBUTANOATE-OH-CH3-XFER-RXN
YPL091W	GLUTATHIONE-REDUCT-NADPH-RXN
YMR108W	ACETOOHBUTSYN-RXN
YCL009C	ACETOOHBUTSYN-RXN
YOR388C	FORMATEDEHYDROG-RXN
YJR139C	HOMOSERDEHYDROG-RXN
YGR019W	GABATRANSAM-RXN
YNR012W	CYTIDINEKIN-RXN
YLR359W	AICARSYN-RXN
YCL064C	THREDEHYD2-RXN
YDL205C	OHMETHYLBILANESYN-RXN
YMR083W	RXN3O-1298
YMR303C	RXN3O-1298
YGL256W	RXN3O-1298
YOL086C	RXN3O-1298
YBR145W	RXN3O-1298
YLR299W	GAMMA-GLUTAMYLTRANSFERASE-RXN
YDR017C	2.7.1.152-RXN
YIL124W	RXN3O-1070
YMR289W	ADCLY-RXN
YPR160W	GLYCOPHOSPHORYL-RXN
YKL182W	4.2.1.61-RXN
YBR046C	QOR-RXN
YDR236C	RIBOFLAVINKIN-RXN
YLR205C	|HEME-OXYGENASE-(DECYCLIZING)-RXN|
YOR208W	PROTEIN-TYROSINE-PHOSPHATASE-RXN
YDL052C	1-ACYLGLYCEROL-3-P-ACYLTRANSFER-RXN
YNL280C	RXN3O-145
YOR143C	THIAMIN-PYROPHOSPHOKINASE-RXN
YLR044C	RXN3O-4133
YGR087C	RXN3O-4133
YLR134W	RXN3O-4133
YNR008W	RXN3O-4135
YLR410W	RXN3O-143
YEL021W	OROTPDECARB-RXN
YGL156W	3.2.1.24-RXN
YOR125C	RXN3O-75
YOR241W	RXN0-2921
YGL062W	PYRUVATE-CARBOXYLASE-RXN
YBR218C	PYRUVATE-CARBOXYLASE-RXN
YGR227W	RXN3O-413
YOR067C	RXN3O-412
YOR002W	RXN3O-411
YDL055C	2.7.7.13-RXN
YBR006W	SUCCSEMIALDDEHYDROG-RXN
YOR209C	NICOTINATEPRIBOSYLTRANS-RXN
YML070W	GLYCERONE-KINASE-RXN
YFL053W	GLYCERONE-KINASE-RXN
YPL117C	IPPISOM-RXN
YOL143C	LUMAZINESYN-RXN
YFR019W	2.7.1.150-RXN
YGL184C	CYSTATHIONINE-BETA-LYASE-RXN
YER183C	5-FORMYL-THF-CYCLO-LIGASE-RXN
YBR256C	RIBOFLAVIN-SYN-RXN
YER091C	HOMOCYSMET-RXN
YOL064C	|3'(2'),5'-BISPHOSPHATE-NUCLEOTIDASE-RXN|
YFL017C	GLUCOSAMINEPNACETYLTRANS-RXN
YCR107W	RXN-662
YJR155W	RXN-662
YDL243C	RXN-662
YNL331C	RXN-662
YFL056C	RXN-662
YOL165C	RXN-662
YJR105W	ADENOSINE-KINASE-RXN
YDR017C	RXN-4941
YDR173C	RXN-4941
YDL171C	|GLUTAMATE-SYNTHASE-(NADH)-RXN|
YJR078W	|TRYPTOPHAN-2,3-DIOXYGENASE-RXN|
YDR007W	PRAISOM-RXN
YNL048W	2.4.1.131-RXN
YPR183W	2.4.1.83-RXN
YMR217W	GMP-SYN-GLUT-RXN
YGL012W	RXN3O-243
YCR107W	BENZYL-ALC-DEHYDROGENASE-RXN
YJR155W	BENZYL-ALC-DEHYDROGENASE-RXN
YNL331C	BENZYL-ALC-DEHYDROGENASE-RXN
YDL243C	BENZYL-ALC-DEHYDROGENASE-RXN
YFL056C	BENZYL-ALC-DEHYDROGENASE-RXN
YOL165C	BENZYL-ALC-DEHYDROGENASE-RXN
YDR044W	RXN0-1461
YDR208W	2.7.1.68-RXN
YIL116W	HISTAMINOTRANS-RXN
YLR157C	ASPARAGHYD-RXN
YDR321W	ASPARAGHYD-RXN
YLR158C	ASPARAGHYD-RXN
YLR155C	ASPARAGHYD-RXN
YLR160C	ASPARAGHYD-RXN
YJL172W	GLY-X-CARBOXYPEPTIDASE-RXN
YAL062W	GLUTDEHYD-RXN
YOR375C	GLUTDEHYD-RXN
YEL011W	GLYCOGEN-BRANCH-RXN
YDR173C	RXN-7184
YLR153C	ACETATE--COA-LIGASE-RXN
YAL054C	ACETATE--COA-LIGASE-RXN
YDR400W	RXN0-361
YHR068W	1.1.1.249-RXN
YAL060W	ACETOINDEHYDROG-RXN
YML082W	O-SUCCHOMOSERLYASE-RXN
YEL060C	3.4.21.48-RXN
YHR046C	|MYO-INOSITOL-1(OR-4)-MONOPHOSPHATASE-RXN|
YDR287W	|MYO-INOSITOL-1(OR-4)-MONOPHOSPHATASE-RXN|
YLR209C	PNP-RXN
YGR267C	GTP-CYCLOHYDRO-I-RXN
YGL202W	PHEAMINOTRANS-DEG-RXN
YDR047W	UROGENDECARBOX-RXN
YDR315C	RXN-7163
YDR173C	RXN-7162
YHR025W	HOMOSERKIN-RXN
YPL057C	RXN3O-663
YBR036C	RXN3O-663
YFL045C	PHOSMANMUT-RXN
YDL182W	HOMOCITRATE-SYNTHASE-RXN
YDL131W	HOMOCITRATE-SYNTHASE-RXN
YGL017W	ARGINYLTRANSFERASE-RXN
YOR190W	3.2.1.58-RXN
YLR300W	3.2.1.58-RXN
YDR261C	3.2.1.58-RXN
YGR282C	3.2.1.58-RXN
YJL068C	S-FORMYLGLUTATHIONE-HYDROLASE-RXN
YDL104C	3.4.24.57-RXN
YOL049W	GLUTATHIONE-SYN-RXN
YKR097W	PEPCARBOXYKIN-RXN
YNR041C	2.5.1.39-RXN
YIL073C	PHOSPHOLIPASE-A2-RXN
YML120C	NADH-DEHYDROG-A-RXN
YGR012W	ACSERLY-RXN
YBR020W	GALACTOKIN-RXN
YLR351C	3.5.5.1-RXN
YIL164C	3.5.5.1-RXN
YJL126W	3.5.5.1-RXN
YDL015C	RXN-7711
YLR209C	RXN3O-205
YFL018C	RXN-7716
YJR051W	|FUMARATE-REDUCTASE-(NADH)-RXN|
YGR204W	FORMATETHFLIG-RXN
YBR084W	FORMATETHFLIG-RXN
YGR199W	2.4.1.109-RXN
YDL093W	2.4.1.109-RXN
YJR143C	2.4.1.109-RXN
YAL023C	2.4.1.109-RXN
YOR321W	2.4.1.109-RXN
YDL095W	2.4.1.109-RXN
YJL097W	RXN-7699
YHR123W	ETHANOLAMINEPHOSPHOTRANSFERASE-RXN
YJL121C	RIBULP3EPIM-RXN
YGL047W	2.4.1.141-RXN
YBR070C	2.4.1.141-RXN
YDR074W	TREHALOSEPHOSPHA-RXN
YNL256W	H2PTERIDINEPYROPHOSPHOKIN-RXN
YJR073C	RXN3O-349
YJR073C	RXN3O-348
YDR017C	RXN3O-347
YLR089C	ALANINE-AMINOTRANSFERASE-RXN
YJR159W	L-IDITOL-2-DEHYDROGENASE-RXN
YER069W	ACETYLGLUTKIN-RXN
YLR240W	1-PHOSPHATIDYLINOSITOL-3-KINASE-RXN
YLR044C	RXN3O-470
YGR087C	RXN3O-470
YLR134W	RXN3O-470
YCR034W	RXN-7697
YLR372W	RXN-7697
YLR328W	NICONUCADENYLYLTRAN-RXN
YGR010W	NICONUCADENYLYLTRAN-RXN
YKL104C	L-GLN-FRUCT-6-P-AMINOTRANS-RXN
YGR087C	4.1.1.74-RXN
YDR380W	4.1.1.74-RXN
YLR044C	4.1.1.74-RXN
YLR134W	4.1.1.74-RXN
YDR232W	5-AMINOLEVULINIC-ACID-SYNTHASE-RXN
YIL066C	UDPREDUCT-RXN
YJL026W	UDPREDUCT-RXN
YGR180C	UDPREDUCT-RXN
YER070W	UDPREDUCT-RXN
YMR108W	ACETOLACTSYN-RXN
YCL009C	ACETOLACTSYN-RXN
YBR243C	2.7.8.15-RXN
YGL202W	TRYPTOPHAN-AMINOTRANSFERASE-RXN
YIL002C	3.1.3.56-RXN
YOL065C	3.1.3.56-RXN
YNL106C	3.1.3.56-RXN
YOR109W	3.1.3.56-RXN
YKL182W	ENOYL-ACP-REDUCT-NADPH-RXN
YEL029C	PYRIDOXKIN-RXN
YHR183W	6PGLUCONDEHYDROG-RXN
YGR256W	6PGLUCONDEHYDROG-RXN
YIL155C	GLYCEROL-3-PHOSPHATE-DEHYDROGENASE-RXN
YDR127W	3-DEHYDROQUINATE-SYNTHASE-RXN
YNR012W	URIDINEKIN-RXN
YDR148C	DIHYDLIPSUCCTRANS-RXN
YKL216W	DIHYDROOROTATE-DEHYDROGENASE-RXN
YLR299W	RXN3O-112
YHR037W	SUCCGLU-SEMIALDEHYDE-SUCCGLU-RXN
YBR153W	RXN3O-110
YOR360C	3.1.4.17-RXN
YGL248W	3.1.4.17-RXN
YKL134C	3.4.24.59-RXN
YKL019W	RXN3O-24
YDL090C	RXN3O-24
YMR013C	DOLICHOL-KINASE-RXN
YBR208C	UREA-CARBOXYLASE-RXN
YLR308W	CHITIN-DEACETYLASE-RXN
YLR307W	CHITIN-DEACETYLASE-RXN
YCL050C	ATP-ADENYLYLTRANSFERASE-RXN
YDR530C	ATP-ADENYLYLTRANSFERASE-RXN
YMR239C	3.1.26.3-RXN
YGR202C	2.7.7.15-RXN
YKR031C	PHOSPHOLIPASE-D-RXN
YNL277W	HOMOSERINE-O-ACETYLTRANSFERASE-RXN
YHR043C	3.1.3.68-RXN
YHR044C	3.1.3.68-RXN
YML110C	RXN3O-54
YKR066C	CYTOCHROME-C-PEROXIDASE-RXN
YOR202W	IMIDPHOSDEHYD-RXN
YPR184W	AMYLOMALT-RXN
YDR376W	FLAVONADPREDUCT-RXN
YJL134W	RXN3O-504
YKR053C	RXN3O-504
YKR080W	1.5.1.15-RXN
YBR159W	RXN-7698
YIL125W	2OXOGLUTARATEDEH-RXN
YDR148C	2OXOGLUTARATEDEH-RXN
YFL018C	2OXOGLUTARATEDEH-RXN
YOR163W	RXN3O-786
YOR163W	RXN3O-785
YER061C	3-OXOACYL-ACP-SYNTH-RXN
YPL231W	3-OXOACYL-ACP-SYNTH-RXN
YDR531W	PANTOTHENATE-KIN-RXN
YOR040W	GLYOXII-RXN
YDR272W	GLYOXII-RXN
YLR038C	CYTOCHROME-C-OXIDASE-RXN
Q0275	CYTOCHROME-C-OXIDASE-RXN
YNL052W	CYTOCHROME-C-OXIDASE-RXN
YHR051W	CYTOCHROME-C-OXIDASE-RXN
YDL067C	CYTOCHROME-C-OXIDASE-RXN
Q0045	CYTOCHROME-C-OXIDASE-RXN
YGL191W	CYTOCHROME-C-OXIDASE-RXN
YMR256C	CYTOCHROME-C-OXIDASE-RXN
YLR395C	CYTOCHROME-C-OXIDASE-RXN
Q0250	CYTOCHROME-C-OXIDASE-RXN
YOR350C	CYTOCHROME-C-OXIDASE-RXN
YGL187C	CYTOCHROME-C-OXIDASE-RXN
YIL111W	CYTOCHROME-C-OXIDASE-RXN
YGL026C	TRYPSYN-RXN
YER081W	PGLYCDEHYDROG-RXN
YIL074C	PGLYCDEHYDROG-RXN
YGL234W	AIRS-RXN
YNL130C	2.7.8.2-RXN
YBL033C	GTP-CYCLOHYDRO-II-RXN
YJL166W	1.10.2.2-RXN
YEL024W	1.10.2.2-RXN
YGR183C	1.10.2.2-RXN
YPR191W	1.10.2.2-RXN
YDR529C	1.10.2.2-RXN
YBL045C	1.10.2.2-RXN
Q0105	1.10.2.2-RXN
YHR001W	1.10.2.2-RXN
YFR033C	1.10.2.2-RXN
YDR481C	ALKAPHOSPHA-RXN
YLR355C	ACETOOHBUTREDUCTOISOM-RXN
YDR441C	ADENPRIBOSYLTRAN-RXN
YML022W	ADENPRIBOSYLTRAN-RXN
YDR127W	SHIKIMATE-KINASE-RXN
YJL088W	ORNCARBAMTRANSFER-RXN
YMR297W	3.4.16.5-RXN
YMR250W	GLUTDECARBOX-RXN
YKL067W	GDP-KIN-RXN
YML054C	|L-LACTATE-DEHYDROGENASE-(CYTOCHROME)-RXN|
YOR074C	THYMIDYLATESYN-RXN
YPL268W	3.1.4.11-RXN
YOL061W	PRPPSYN-RXN
YER099C	PRPPSYN-RXN
YHL011C	PRPPSYN-RXN
YKL181W	PRPPSYN-RXN
YBL068W	PRPPSYN-RXN
YDL168W	RXN-2962
YER014W	PROTOPORGENOXI-RXN
YOR288C	5.3.4.1-RXN
YOL088C	5.3.4.1-RXN
YCL043C	5.3.4.1-RXN
YDR518W	5.3.4.1-RXN
YLR244C	3.4.11.18-RXN
YBL091C	3.4.11.18-RXN
YNL256W	H2NEOPTERINALDOL-RXN
YPR184W	RXN3O-4038
YAL060W	|(R,R)-BUTANEDIOL-DEHYDROGENASE-RXN|
YML126C	HYDROXYMETHYLGLUTARYL-COA-SYNTHASE-RXN
YHL032C	GLYCEROL-KIN-RXN
YDR127W	2.5.1.19-RXN
YMR271C	OROPRIBTRANS-RXN
YML106W	OROPRIBTRANS-RXN
YKL182W	GEN-ENOYL-ACP-RXN
YER061C	3-OXOACYL-ACP-SYNTH-BASE-RXN
YPL231W	3-OXOACYL-ACP-SYNTH-BASE-RXN
YHR128W	URACIL-PRIBOSYLTRANS-RXN
YOR274W	TRNA-ISOPENTENYLTRANSFERASE-RXN
YNR008W	2.3.1.43-RXN
YBR029C	CDPDIGLYSYN-RXN
YBR213W	DIMETHUROPORDEHYDROG-RXN
YBR166C	|PREPHENATE-DEHYDROGENASE-(NADP+)-RXN|
YOR128C	AIRCARBOXY-RXN
YCL057W	3.4.24.37-RXN
YNL325C	RXN3O-248
YNL106C	RXN3O-248
YOR109W	RXN3O-248
YKL212W	RXN3O-248
YNR033W	PABASYN-RXN
YML086C	1.1.3.37-RXN
YDR050C	TRIOSEPISOMERIZATION-RXN
YIR032C	UREIDOGLYCOLATE-LYASE-RXN
YHR063C	2-DEHYDROPANTOATE-REDUCT-RXN
YIL066C	GDPREDUCT-RXN
YJL026W	GDPREDUCT-RXN
YGR180C	GDPREDUCT-RXN
YER070W	GDPREDUCT-RXN
YGR087C	RXN3O-156
YDR380W	RXN3O-156
YLR044C	RXN3O-156
YLR134W	RXN3O-156
YCL030C	HISTOLDEHYD-RXN
YGR060W	RXN3O-154
YGL001C	RXN3O-4107
YDR400W	RXN-8441
YDR380W	RXN3O-4108
YDL080C	RXN3O-4108
YMR083W	RXN3O-4109
YGL256W	RXN3O-4109
YBR145W	RXN3O-4109
YDL168W	RXN3O-4109
YMR303C	RXN3O-4109
YOL086C	RXN3O-4109
YKR067W	GLYCEROL-3-P-ACYLTRANSFER-RXN
YBL011W	GLYCEROL-3-P-ACYLTRANSFER-RXN
YIL160C	KETOACYLCOATHIOL-RXN
YBR252W	DUTP-PYROP-RXN
YGL234W	GLYRIBONUCSYN-RXN
